…
``` r
b<-group_by(Age_County_Gender_061,.dots=發病月份) %>%
  summarise(病例=sum(確定病例數)) %>%
  arrange(desc(病例))

c<-group_by(Age_County_Gender_061,.dots=縣市) %>%
 summarise(病例=sum(確定病例數)) %>%
 arrange(desc(病例))
group_by(a,.dots=縣市) %>%
  summarise(女生病例=sum(確定病例數.x,na.rm=T),男生病例=sum(確定病例數.y,na.rm=T)) %>%
  arrange(desc(女生病例),desc(男生病例))
```

    ## # A tibble: 22 × 3
    ##     .dots 女生病例 男生病例
    ##    <fctr>    <int>    <int>
    ## 1  高雄市    21293    20325
    ## 2  台南市    13419    13281
    ## 3  屏東縣      864      899
    ## 4  台北市      319      387
    ## 5  新北市      299      335
    ## 6  台中市      187      262
    ## 7  桃園市      186      252
    ## 8  彰化縣       72       87
    ## 9  澎湖縣       67       70
    ## 10 新竹縣       54       60
    ## # ... with 12 more rows
…
